{
    "cota":{
        "connectivity_info":{
            "host": "10.5.10.100",
            "db_name": "windbear",
            "port": 27017
        }
    },
    "lv":{
        "connectivity_info":{
            "host": "10.0.3.44",
            "db_name": "windbear",
            "port": 27017
        },
        "collections":[
            ["waze_traffic_alerts_lv_received", 1],
            ["waze_traffic_jam_lv_received", 1],
            ["construction_live_lv_received", 25]
        ]
    },
    "lv_dev":{
        "connectivity_info":{
            "host": "10.0.3.155",
            "db_name": "windbear",
            "port": 27017
        },
        "collections":[
            ["avg_speeds_lv_received", 1],
            ["bulk_geotab_fsp_location_live_lv_received", 1],
            ["construction_live_lv_received", 25],
            ["dead_waze_traffic_alerts_lv_received", 1],
            ["dms_fast_live_lv_received", 1],
            ["dms_read_received", 1],
            ["dms_tt_fast_live_lv_received", 1],
            ["events_live_lv_received", 1],
            ["events_tm_live_lv_received", 25],
            ["fast_sensors_live_lv_received", 1],
            ["geotab_fsp_location_live_lv_received", 1],
            ["geotab_trips_live_lv_received", 1],
            ["gr_alerts_live_lv_received", 1],
            ["is_alive_received", 1],
            ["lv_busses_locations_live_received", 1],
            ["lv_conventions_live_received", 25],
            ["lvmpd_live_lv_received", 6],
            ["nhp_loc_live_lv_received", 1],
            ["road_incidents_dead_nhp_live_lv_received", 1],
            ["road_incidents_ndot_511_live_lv_received", 6],
            ["road_incidents_ndot_live_lv_received", 6],
            ["road_incidents_ndot_spillman_live_lv_received", 6],
            ["road_incidents_nhp_live_lv_received", 6],
            ["safety_events_lv_received", 6],
            ["tm_events_live_lv_received", 25],
            ["travel_times_live_lv_received", 1],
            ["twitter_live_lv_received", 25],
            ["waze_traffic_alerts_lv_received", 1],
            ["waze_traffic_jam_lv_received", 1],
            ["waze_trips_lv_received", 1],
            ["weather_forecast_live_lv_received", 25],
            ["weather_underground_live_lv_received", 1]
        ]
    }
}


